…
``` r
#6.1 More precisely, use dplyr operations to obtain a tibble with two columns: shot_distance and made_shot_prop. The first row of the tibble should contain the value of distance = 0 ft, and the associated proportion of made shots (of all the five analyzed players). The second row should contain the value of distance = 1 ft, and the corresponding proportion of made shots; and so on

shotprop<- dat %>%       
  group_by(shot_distance)%>%summarise(
    made_shot_prop = sum(shot_made_flag=="made shot")/length(shot_made_flag)
  )
shotprop
```

    ## # A tibble: 56 x 2
    ##    shot_distance made_shot_prop
    ##            <int>          <dbl>
    ##  1             0          0.841
    ##  2             1          0.668
    ##  3             2          0.534
    ##  4             3          0.373
    ##  5             4          0.411
    ##  6             5          0.286
    ##  7             6          0.396
    ##  8             7          0.395
    ##  9             8          0.463
    ## 10             9          0.321
    ## # ... with 46 more rows
…
